4280801076 TreeSet(0, 1, 2)
3254610410 TreeSet(0, 1, 2)
2399559440 TreeSet(0, 1, 2)
1488310435 TreeSet(0, 1, 2)
2765257928 TreeSet(0, 1, 2)
890045715 TreeSet(0, 1, 2)
4071080581 TreeSet(0, 1, 2)
3406451497 TreeSet(0, 1, 2)
1988402848 TreeSet(0, 1, 2)
3670061797 TreeSet(0, 1, 2)
2971394355 TreeSet(0, 1, 2)
1423602896 TreeSet(0, 1, 2)
2505096569 TreeSet(0, 1, 2)
517844691 TreeSet(0, 1, 2)
3459311105 TreeSet(0, 1, 2)
2426079401 TreeSet(0, 1, 2)
3952028604 TreeSet(0, 1, 2)
2477220757 TreeSet(0, 1, 2)
927575930 TreeSet(0, 1, 2)
4112837904 TreeSet(0, 1, 2)
1625747666 TreeSet(0, 1, 2)
2662377094 TreeSet(0, 1, 2)
958236964 TreeSet(0, 1, 2)
3953628049 TreeSet(0, 1, 2)
3366592660 TreeSet(0, 1, 2)
1918554723 TreeSet(0, 1, 2)
2611583977 TreeSet(0, 1, 2)
2833053922 TreeSet(0, 1, 2)
3818142676 TreeSet(0, 1, 2)
2194238095 TreeSet(0, 1, 2)
2977012073 TreeSet(0, 1, 2)
2674267939 TreeSet(0, 1, 2)
2692302910 TreeSet(0, 1, 2)
3207921466 TreeSet(0, 1, 2)
3788624282 TreeSet(0, 1, 2)
562717121 TreeSet(0, 1, 2)
1942975369 TreeSet(0, 1, 2)
211168454 TreeSet(0, 1, 2)
4213341046 TreeSet(0, 1, 2)
3785081288 TreeSet(0, 1, 2)
1079517199 TreeSet(0, 1, 2)
2007947259 TreeSet(0, 1, 2)
3729442327 TreeSet(0, 1, 2)
2932952023 TreeSet(0, 1, 2)
454497141 TreeSet(0, 1, 2)
2874745604 TreeSet(0, 1, 2)
1397388079 TreeSet(0, 1, 2)
2431375499 TreeSet(0, 1, 2)
485635217 TreeSet(0, 1, 2)
3785322973 TreeSet(0, 1, 2)
2368222529 TreeSet(0, 1, 2)
3996163672 TreeSet(0, 1, 2)
457417512 TreeSet(0, 1, 2)
2414561153 TreeSet(0, 1, 2)
835578276 TreeSet(0, 1, 2)
2298359957 TreeSet(0, 1, 2)
2804170568 TreeSet(0, 1, 2)
2680821668 TreeSet(0, 1, 2)
386903904 TreeSet(0, 1, 2)
2995643106 TreeSet(0, 1, 2)
3634020533 TreeSet(0, 1, 2)
3525730900 TreeSet(0, 1, 2)
2560313576 TreeSet(0, 1, 2)
3965985808 TreeSet(0, 1, 2)
2521384512 TreeSet(0, 1, 2)
4199035443 TreeSet(0, 1, 2)
707725914 TreeSet(0, 1, 2)
1367898614 TreeSet(0, 1, 2)
2716180978 TreeSet(0, 1, 2)
2747106100 TreeSet(0, 1, 2)
163305782 TreeSet(0, 1, 2)
1224355955 TreeSet(0, 1, 2)
2262404688 TreeSet(0, 1, 2)
698456354 TreeSet(0, 1, 2)
3394360003 TreeSet(0, 1, 2)
1574995309 TreeSet(0, 1, 2)
2357925011 TreeSet(0, 1, 2)
2451550856 TreeSet(0, 1, 2)
2165744002 TreeSet(0, 1, 2)
3928736290 TreeSet(0, 1, 2)
3588066624 TreeSet(0, 1, 2)
4181303712 TreeSet(0, 1, 2)
3360270551 TreeSet(0, 1, 2)
2207775542 TreeSet(0, 1, 2)
3635666990 TreeSet(0, 1, 2)
3512305997 TreeSet(0, 1, 2)
1873561350 TreeSet(0, 1, 2)
3986824449 TreeSet(0, 1, 2)
3102189772 TreeSet(0, 1, 2)
3151489983 TreeSet(0, 1, 2)
2322670295 TreeSet(0, 1, 2)
2426052656 TreeSet(0, 1, 2)
1751941338 TreeSet(0, 1, 2)
1299121629 TreeSet(0, 1, 2)
2277662586 TreeSet(0, 1, 2)
2553819279 TreeSet(0, 1, 2)
1946670270 TreeSet(0, 1, 2)
3157775499 TreeSet(0, 1, 2)
3778814343 TreeSet(0, 1, 2)
3914269174 TreeSet(0, 1, 2)
834099464 TreeSet(0, 1, 2)
1821867091 TreeSet(0, 1, 2)
734727030 TreeSet(0, 1, 2)
3495628956 TreeSet(0, 1, 2)
900142438 TreeSet(0, 1, 2)
3763673245 TreeSet(0, 1, 2)
1714677492 TreeSet(0, 1, 2)
1903874474 TreeSet(0, 1, 2)
930387877 TreeSet(0, 1, 2)
4152901459 TreeSet(0, 1, 2)
4251344319 TreeSet(0, 1, 2)
3300359331 TreeSet(0, 1, 2)
119871483 TreeSet(0, 1, 2)
2964877410 TreeSet(0, 1, 2)
2569417157 TreeSet(0, 1, 2)
3360288936 TreeSet(0, 1, 2)
929785731 TreeSet(0, 1, 2)
1126005751 TreeSet(0, 1, 2)
2882534179 TreeSet(0, 1, 2)
607460544 TreeSet(0, 1, 2)
3223265525 TreeSet(0, 1, 2)
3694249156 TreeSet(0, 1, 2)
1644477170 TreeSet(0, 1, 2)
1851037345 TreeSet(0, 1, 2)
3472229889 TreeSet(0, 1, 2)
4196703008 TreeSet(0, 1, 2)
322149326 TreeSet(0, 1, 2)
87006678 TreeSet(0, 1, 2)
2465713151 TreeSet(0, 1, 2)
4173396030 TreeSet(0, 1, 2)
2900055508 TreeSet(0, 1, 2)
2879564456 TreeSet(0, 1, 2)
4236074351 TreeSet(0, 1, 2)
3606902775 TreeSet(0, 1, 2)
2635902343 TreeSet(0, 1, 2)
55475168 TreeSet(0, 1, 2)
773914422 TreeSet(0, 1, 2)
2496722417 TreeSet(0, 1, 2)
1151239557 TreeSet(0, 1, 2)
862415428 TreeSet(0, 1, 2)
1168512142 TreeSet(0, 1, 2)
1596118537 TreeSet(0, 1, 2)
2207808172 TreeSet(0, 1, 2)
1355014624 TreeSet(0, 1, 2)
1504585858 TreeSet(0, 1, 2)
1693349334 TreeSet(0, 1, 2)
1412797711 TreeSet(0, 1, 2)
2506048622 TreeSet(0, 1, 2)
282264042 TreeSet(0, 1, 2)
1362946172 TreeSet(0, 1, 2)
2097974322 TreeSet(0, 1, 2)
828700709 TreeSet(0, 1, 2)
3620249226 TreeSet(0, 1, 2)
2776911045 TreeSet(0, 1, 2)
2230420657 TreeSet(0, 1, 2)
4036465105 TreeSet(0, 1, 2)
2551566686 TreeSet(0, 1, 2)
1704410331 TreeSet(0, 1, 2)
1274077882 TreeSet(0, 1, 2)
41417530 TreeSet(0, 1, 2)
824008781 TreeSet(0, 1, 2)
2194246534 TreeSet(0, 1, 2)
542843146 TreeSet(0, 1, 2)
1914624844 TreeSet(0, 1, 2)
3668321271 TreeSet(0, 1, 2)
1182088998 TreeSet(0, 1, 2)
903197830 TreeSet(0, 1, 2)
1554327024 TreeSet(0, 1, 2)
92335316 TreeSet(0, 1, 2)
1623105743 TreeSet(0, 1, 2)
1806727913 TreeSet(0, 1, 2)
1625555023 TreeSet(0, 1, 2)
3056336754 TreeSet(0, 1, 2)
4208585602 TreeSet(0, 1, 2)
3051592889 TreeSet(0, 1, 2)
1145472283 TreeSet(0, 1, 2)
8675810 TreeSet(0, 1, 2)
1980632932 TreeSet(0, 1, 2)
2701652064 TreeSet(0, 1, 2)
3810730551 TreeSet(0, 1, 2)
470830345 TreeSet(0, 1, 2)
3998095141 TreeSet(0, 1, 2)
1624854953 TreeSet(0, 1, 2)
2998582225 TreeSet(0, 1, 2)
338408772 TreeSet(0, 1, 2)
3538094993 TreeSet(0, 1, 2)
162367701 TreeSet(0, 1, 2)
2986682889 TreeSet(0, 1, 2)
166934661 TreeSet(0, 1, 2)
2931705528 TreeSet(0, 1, 2)
3730435877 TreeSet(0, 1, 2)
3951157762 TreeSet(0, 1, 2)
1356306872 TreeSet(0, 1, 2)
2568728967 TreeSet(0, 1, 2)
738411905 TreeSet(0, 1, 2)
2408111630 TreeSet(0, 1, 2)
2874307284 TreeSet(0, 1, 2)
1113265117 TreeSet(0, 1, 2)
2633327998 TreeSet(0, 1, 2)
2060866384 TreeSet(0, 1, 2)
86924478 TreeSet(0, 1, 2)
2183504820 TreeSet(0, 1, 2)
3030240529 TreeSet(0, 1, 2)
2259124019 TreeSet(0, 1, 2)
2611692094 TreeSet(0, 1, 2)
3233138988 TreeSet(0, 1, 2)
1800784578 TreeSet(0, 1, 2)
1201541010 TreeSet(0, 1, 2)
1591492422 TreeSet(0, 1, 2)
3023816096 TreeSet(0, 1, 2)
3180504072 TreeSet(0, 1, 2)
3686580769 TreeSet(0, 1, 2)
946328005 TreeSet(0, 1, 2)
1975274526 TreeSet(0, 1, 2)
3583448117 TreeSet(0, 1, 2)
1880363446 TreeSet(0, 1, 2)
1931983492 TreeSet(0, 1, 2)
1632708852 TreeSet(0, 1, 2)
1268883975 TreeSet(0, 1, 2)
1158747319 TreeSet(0, 1, 2)
2334734990 TreeSet(0, 1, 2)
1685663185 TreeSet(0, 1, 2)
1891027226 TreeSet(0, 1, 2)
630219834 TreeSet(0, 1, 2)
408209914 TreeSet(0, 1, 2)
1338701414 TreeSet(0, 1, 2)
3534177046 TreeSet(0, 1, 2)
2306844687 TreeSet(0, 1, 2)
1876178534 TreeSet(0, 1, 2)
2205889225 TreeSet(0, 1, 2)
2641388746 TreeSet(0, 1, 2)
1350185420 TreeSet(0, 1, 2)
620657992 TreeSet(0, 1, 2)
177955616 TreeSet(0, 1, 2)
1317418813 TreeSet(0, 1, 2)
1385108272 TreeSet(0, 1, 2)
2500091075 TreeSet(0, 1, 2)
1852889011 TreeSet(0, 1, 2)
12018035 TreeSet(0, 1, 2)
3565591886 TreeSet(0, 1, 2)
677783981 TreeSet(0, 1, 2)
3826013634 TreeSet(0, 1, 2)
540076512 TreeSet(0, 1, 2)
473318764 TreeSet(0, 1, 2)
2015447534 TreeSet(0, 1, 2)
693250183 TreeSet(0, 1, 2)
35617739 TreeSet(0, 1, 2)
4144815828 TreeSet(0, 1, 2)
581736960 TreeSet(0, 1, 2)
1678984652 TreeSet(0, 1, 2)
4100164993 TreeSet(0, 1, 2)
287084799 TreeSet(0, 1, 2)
2919507931 TreeSet(0, 1, 2)
3689669134 TreeSet(0, 1, 2)
1178636201 TreeSet(0, 1, 2)
3390079991 TreeSet(0, 1, 2)
2747609757 TreeSet(0, 1, 2)
678721925 TreeSet(0, 1, 2)
1504872691 TreeSet(0, 1, 2)
3117647905 TreeSet(0, 1, 2)
3737358133 TreeSet(0, 1, 2)
2933114663 TreeSet(0, 1, 2)
2999792436 TreeSet(0, 1, 2)
3337834253 TreeSet(0, 1, 2)
1970050192 TreeSet(0, 1, 2)
3193644965 TreeSet(0, 1, 2)
483303119 TreeSet(0, 1, 2)
4059936897 TreeSet(0, 1, 2)
3282895443 TreeSet(0, 1, 2)
306204740 TreeSet(0, 1, 2)
461027704 TreeSet(0, 1, 2)
3417586096 TreeSet(0, 1, 2)
4128275484 TreeSet(0, 1, 2)
3207693621 TreeSet(0, 1, 2)
1580192806 TreeSet(0, 1, 2)
1614811455 TreeSet(0, 1, 2)
711096430 TreeSet(0, 1, 2)
1587072997 TreeSet(0, 1, 2)
3474220295 TreeSet(0, 1, 2)
1696993075 TreeSet(0, 1, 2)
2083026481 TreeSet(0, 1, 2)
1082315412 TreeSet(0, 1, 2)
1194009911 TreeSet(0, 1, 2)
998941079 TreeSet(0, 1, 2)
615519917 TreeSet(0, 1, 2)
2971595521 TreeSet(0, 1, 2)
3314114473 TreeSet(0, 1, 2)
4050471758 TreeSet(0, 1, 2)
2826420816 TreeSet(0, 1, 2)
806124072 TreeSet(0, 1, 2)
3440391994 TreeSet(0, 1, 2)
1374202823 TreeSet(0, 1, 2)
205860468 TreeSet(0, 1, 2)
1444414504 TreeSet(0, 1, 2)
3596455016 TreeSet(0, 1, 2)
2083649031 TreeSet(0, 1, 2)
329722264 TreeSet(0, 1, 2)
600314250 TreeSet(0, 1, 2)
4005776636 TreeSet(0, 1, 2)
3029393107 TreeSet(0, 1, 2)
2466904397 TreeSet(0, 1, 2)
374928415 TreeSet(0, 1, 2)
1677050290 TreeSet(0, 1, 2)
1152028397 TreeSet(0, 1, 2)
2587455614 TreeSet(0, 1, 2)
2529977500 TreeSet(0, 1, 2)
3701771624 TreeSet(0, 1, 2)
2955381365 TreeSet(0, 1, 2)
1960367756 TreeSet(0, 1, 2)
2626227933 TreeSet(0, 1, 2)
787598500 TreeSet(0, 1, 2)
1506468765 TreeSet(0, 1, 2)
686600887 TreeSet(0, 1, 2)
1857541357 TreeSet(0, 1, 2)
2071126317 TreeSet(0, 1, 2)
3301100908 TreeSet(0, 1, 2)
3743239549 TreeSet(0, 1, 2)
2366848886 TreeSet(0, 1, 2)
4133713682 TreeSet(0, 1, 2)
2736691579 TreeSet(0, 1, 2)
1632647989 TreeSet(0, 1, 2)
522624335 TreeSet(0, 1, 2)
1037576116 TreeSet(0, 1, 2)
2475278828 TreeSet(0, 1, 2)
335892073 TreeSet(0, 1, 2)
634318754 TreeSet(0, 1, 2)
2981895122 TreeSet(0, 1, 2)
589566295 TreeSet(0, 1, 2)
1073130886 TreeSet(0, 1, 2)
32684928 TreeSet(0, 1, 2)
3166553803 TreeSet(0, 1, 2)
3304257162 TreeSet(0, 1, 2)
2159821510 TreeSet(0, 1, 2)
1680522834 TreeSet(0, 1, 2)
3388916613 TreeSet(0, 1, 2)
39018538 TreeSet(0, 1, 2)
1006338437 TreeSet(0, 1, 2)
2969188998 TreeSet(0, 1, 2)
3184531375 TreeSet(0, 1, 2)
2531257505 TreeSet(0, 1, 2)
4115627983 TreeSet(0, 1, 2)
131210576 TreeSet(0, 1, 2)
607921851 TreeSet(0, 1, 2)
801684813 TreeSet(0, 1, 2)
2889461211 TreeSet(0, 1, 2)
2105886475 TreeSet(0, 1, 2)
427948806 TreeSet(0, 1, 2)
549190195 TreeSet(0, 1, 2)
782937124 TreeSet(0, 1, 2)
3966287587 TreeSet(0, 1, 2)
3682036197 TreeSet(0, 1, 2)
2268906924 TreeSet(0, 1, 2)
1796025063 TreeSet(0, 1, 2)
788733338 TreeSet(0, 1, 2)
1435234068 TreeSet(0, 1, 2)
1657237585 TreeSet(0, 1, 2)
3201479795 TreeSet(0, 1, 2)
238304405 TreeSet(0, 1, 2)
3059088630 TreeSet(0, 1, 2)
325358019 TreeSet(0, 1, 2)
4207861909 TreeSet(0, 1, 2)
2469734736 TreeSet(0, 1, 2)
2855469214 TreeSet(0, 1, 2)
4292586865 TreeSet(0, 1, 2)
4254633770 TreeSet(0, 1, 2)
3703969399 TreeSet(0, 1, 2)
2889117313 TreeSet(0, 1, 2)
2365724599 TreeSet(0, 1, 2)
2264989108 TreeSet(0, 1, 2)
3462425813 TreeSet(0, 1, 2)
2800262394 TreeSet(0, 1, 2)
2597892192 TreeSet(0, 1, 2)
1996528914 TreeSet(0, 1, 2)
3313137065 TreeSet(0, 1, 2)
3460844799 TreeSet(0, 1, 2)
1840901888 TreeSet(0, 1, 2)
141271764 TreeSet(0, 1, 2)
4003693666 TreeSet(0, 1, 2)
1598174599 TreeSet(0, 1, 2)
3775241151 TreeSet(0, 1, 2)
2437974930 TreeSet(0, 1, 2)
16003634 TreeSet(0, 1, 2)
3577229311 TreeSet(0, 1, 2)
740630249 TreeSet(0, 1, 2)
1744986820 TreeSet(0, 1, 2)
4255612779 TreeSet(0, 1, 2)
994378120 TreeSet(0, 1, 2)
3776207834 TreeSet(0, 1, 2)
3614422460 TreeSet(0, 1, 2)
4162568908 TreeSet(0, 1, 2)
3386563330 TreeSet(0, 1, 2)
2501625801 TreeSet(0, 1, 2)
2108182385 TreeSet(0, 1, 2)
2185107682 TreeSet(0, 1, 2)
2845901595 TreeSet(0, 1, 2)
251575359 TreeSet(0, 1, 2)
1266870621 TreeSet(0, 1, 2)
2029597202 TreeSet(0, 1, 2)
622985152 TreeSet(0, 1, 2)
3111396247 TreeSet(0, 1, 2)
1860011062 TreeSet(0, 1, 2)
3777121231 TreeSet(0, 1, 2)
2714155830 TreeSet(0, 1, 2)
1713716359 TreeSet(0, 1, 2)
3228723847 TreeSet(0, 1, 2)
1742271789 TreeSet(0, 1, 2)
1545703128 TreeSet(0, 1, 2)
327193215 TreeSet(0, 1, 2)
148147154 TreeSet(0, 1, 2)
244669547 TreeSet(0, 1, 2)
1278121680 TreeSet(0, 1, 2)
825573949 TreeSet(0, 1, 2)
581437856 TreeSet(0, 1, 2)
4080656435 TreeSet(0, 1, 2)
2118511951 TreeSet(0, 1, 2)
1241565456 TreeSet(0, 1, 2)
2578633407 TreeSet(0, 1, 2)
3715720808 TreeSet(0, 1, 2)
944022359 TreeSet(0, 1, 2)
3185024709 TreeSet(0, 1, 2)
4063584545 TreeSet(0, 1, 2)
449372624 TreeSet(0, 1, 2)
2745999536 TreeSet(0, 1, 2)
1626690536 TreeSet(0, 1, 2)
478090986 TreeSet(0, 1, 2)
3087385383 TreeSet(0, 1, 2)
3197502898 TreeSet(0, 1, 2)
1690124181 TreeSet(0, 1, 2)
394221020 TreeSet(0, 1, 2)
423838315 TreeSet(0, 1, 2)
1920559446 TreeSet(0, 1, 2)
1041380664 TreeSet(0, 1, 2)
3199696261 TreeSet(0, 1, 2)
3371355074 TreeSet(0, 1, 2)
1719459150 TreeSet(0, 1, 2)
3387472604 TreeSet(0, 1, 2)
1665359991 TreeSet(0, 1, 2)
2685493357 TreeSet(0, 1, 2)
3255277880 TreeSet(0, 1, 2)
3127138596 TreeSet(0, 1, 2)
947807038 TreeSet(0, 1, 2)
2887470893 TreeSet(0, 1, 2)
475352852 TreeSet(0, 1, 2)
1966421616 TreeSet(0, 1, 2)
471009108 TreeSet(0, 1, 2)
3762225851 TreeSet(0, 1, 2)
3780409886 TreeSet(0, 1, 2)
1272627351 TreeSet(0, 1, 2)
1535566038 TreeSet(0, 1, 2)
2651897177 TreeSet(0, 1, 2)
3387429543 TreeSet(0, 1, 2)
1836434989 TreeSet(0, 1, 2)
790422600 TreeSet(0, 1, 2)
237528443 TreeSet(0, 1, 2)
3550251201 TreeSet(0, 1, 2)
3415310583 TreeSet(0, 1, 2)
1684887309 TreeSet(0, 1, 2)
2805744730 TreeSet(0, 1, 2)
2056344056 TreeSet(0, 1, 2)
2551657342 TreeSet(0, 1, 2)
1260310642 TreeSet(0, 1, 2)
4023158149 TreeSet(0, 1, 2)
918275540 TreeSet(0, 1, 2)
2220158754 TreeSet(0, 1, 2)
3786076890 TreeSet(0, 1, 2)
196157644 TreeSet(0, 1, 2)
3603733946 TreeSet(0, 1, 2)
534084768 TreeSet(0, 1, 2)
2385718604 TreeSet(0, 1, 2)
2273559562 TreeSet(0, 1, 2)
2311768643 TreeSet(0, 1, 2)
952253254 TreeSet(0, 1, 2)
659639514 TreeSet(0, 1, 2)
1830854317 TreeSet(0, 1, 2)
255278266 TreeSet(0, 1, 2)
1100311045 TreeSet(0, 1, 2)
3661750739 TreeSet(0, 1, 2)
831355736 TreeSet(0, 1, 2)
2838278841 TreeSet(0, 1, 2)
2072224122 TreeSet(0, 1, 2)
2445326937 TreeSet(0, 1, 2)
4125165177 TreeSet(0, 1, 2)
969327343 TreeSet(0, 1, 2)
448153901 TreeSet(0, 1, 2)
3942510954 TreeSet(0, 1, 2)
3317556771 TreeSet(0, 1, 2)
1382343163 TreeSet(0, 1, 2)
1972057643 TreeSet(0, 1, 2)
883420935 TreeSet(0, 1, 2)
1042924941 TreeSet(0, 1, 2)
1009139589 TreeSet(0, 1, 2)
3710897807 TreeSet(0, 1, 2)
3801626928 TreeSet(0, 1, 2)
3603344 TreeSet(0, 1, 2)
3563941824 TreeSet(0, 1, 2)
569440891 TreeSet(0, 1, 2)
213188379 TreeSet(0, 1, 2)
189350098 TreeSet(0, 1, 2)
384906561 TreeSet(0, 1, 2)
1844047431 TreeSet(0, 1, 2)
2656464368 TreeSet(0, 1, 2)
3579942608 TreeSet(0, 1, 2)
2496153469 TreeSet(0, 1, 2)
4204249482 TreeSet(0, 1, 2)
2719963362 TreeSet(0, 1, 2)
3013754901 TreeSet(0, 1, 2)
3678685429 TreeSet(0, 1, 2)
2819476407 TreeSet(0, 1, 2)
1840117358 TreeSet(0, 1, 2)
4123930120 TreeSet(0, 1, 2)
2598234394 TreeSet(0, 1, 2)
1418491685 TreeSet(0, 1, 2)
1649158613 TreeSet(0, 1, 2)
2370696833 TreeSet(0, 1, 2)
1453274456 TreeSet(0, 1, 2)
736389160 TreeSet(0, 1, 2)
2166006484 TreeSet(0, 1, 2)
182436112 TreeSet(0, 1, 2)
2632783658 TreeSet(0, 1, 2)
1441470011 TreeSet(0, 1, 2)
3172808395 TreeSet(0, 1, 2)
2829173627 TreeSet(0, 1, 2)
110331200 TreeSet(0, 1, 2)
2055268700 TreeSet(0, 1, 2)
2490459777 TreeSet(0, 1, 2)
3719249411 TreeSet(0, 1, 2)
3091276703 TreeSet(0, 1, 2)
3198408007 TreeSet(0, 1, 2)
695849624 TreeSet(0, 1, 2)
1618201518 TreeSet(0, 1, 2)
540998619 TreeSet(0, 1, 2)
627238543 TreeSet(0, 1, 2)
1570295410 TreeSet(0, 1, 2)
848798050 TreeSet(0, 1, 2)
632774227 TreeSet(0, 1, 2)
3740923150 TreeSet(0, 1, 2)
1104588808 TreeSet(0, 1, 2)
646033177 TreeSet(0, 1, 2)
2905208535 TreeSet(0, 1, 2)
1880198124 TreeSet(0, 1, 2)
4042539778 TreeSet(0, 1, 2)
348608312 TreeSet(0, 1, 2)
4247842438 TreeSet(0, 1, 2)
527217846 TreeSet(0, 1, 2)
1548998743 TreeSet(0, 1, 2)
2815298608 TreeSet(0, 1, 2)
2587643451 TreeSet(0, 1, 2)
599179199 TreeSet(0, 1, 2)
3062897304 TreeSet(0, 1, 2)
2798250692 TreeSet(0, 1, 2)
2066585376 TreeSet(0, 1, 2)
4271614611 TreeSet(0, 1, 2)
3099598033 TreeSet(0, 1, 2)
206274649 TreeSet(0, 1, 2)
4144979048 TreeSet(0, 1, 2)
1332642628 TreeSet(0, 1, 2)
2914167229 TreeSet(0, 1, 2)
3671260927 TreeSet(0, 1, 2)
3674529590 TreeSet(0, 1, 2)
266742738 TreeSet(0, 1, 2)
3026843740 TreeSet(0, 1, 2)
1449208408 TreeSet(0, 1, 2)
3477265273 TreeSet(0, 1, 2)
1247168113 TreeSet(0, 1, 2)
2682151969 TreeSet(0, 1, 2)
1731863302 TreeSet(0, 1, 2)
3193640431 TreeSet(0, 1, 2)
1558384807 TreeSet(0, 1, 2)
2240575946 TreeSet(0, 1, 2)
3417894789 TreeSet(0, 1, 2)
1708126669 TreeSet(0, 1, 2)
1953493037 TreeSet(0, 1, 2)
1287596277 TreeSet(0, 1, 2)
3191962136 TreeSet(0, 1, 2)
2024547555 TreeSet(0, 1, 2)
2317569648 TreeSet(0, 1, 2)
4036424875 TreeSet(0, 1, 2)
4205516513 TreeSet(0, 1, 2)
1345178743 TreeSet(0, 1, 2)
2329198216 TreeSet(0, 1, 2)
110666437 TreeSet(0, 1, 2)
3201374898 TreeSet(0, 1, 2)
86647113 TreeSet(0, 1, 2)
3704332463 TreeSet(0, 1, 2)
4130291178 TreeSet(0, 1, 2)
606896200 TreeSet(0, 1, 2)
3081782278 TreeSet(0, 1, 2)
3756696452 TreeSet(0, 1, 2)
3001867904 TreeSet(0, 1, 2)
3766324236 TreeSet(0, 1, 2)
2328708772 TreeSet(0, 1, 2)
4027655270 TreeSet(0, 1, 2)
146842813 TreeSet(0, 1, 2)
2840100157 TreeSet(0, 1, 2)
1448071879 TreeSet(0, 1, 2)
2094923914 TreeSet(0, 1, 2)
1368470956 TreeSet(0, 1, 2)
3551307862 TreeSet(0, 1, 2)
3145582578 TreeSet(0, 1, 2)
1922307609 TreeSet(0, 1, 2)
3639217045 TreeSet(0, 1, 2)
1533632457 TreeSet(0, 1, 2)
2256630309 TreeSet(0, 1, 2)
3001214586 TreeSet(0, 1, 2)
1360096697 TreeSet(0, 1, 2)
3485580138 TreeSet(0, 1, 2)
3998055125 TreeSet(0, 1, 2)
3688687472 TreeSet(0, 1, 2)
3213919037 TreeSet(0, 1, 2)
1526586963 TreeSet(0, 1, 2)
4157070188 TreeSet(0, 1, 2)
2599902799 TreeSet(0, 1, 2)
875628723 TreeSet(0, 1, 2)
1775805803 TreeSet(0, 1, 2)
1539448699 TreeSet(0, 1, 2)
2410795798 TreeSet(0, 1, 2)
2174182701 TreeSet(0, 1, 2)
1078109435 TreeSet(0, 1, 2)
1151963154 TreeSet(0, 1, 2)
331732862 TreeSet(0, 1, 2)
2135913459 TreeSet(0, 1, 2)
993605519 TreeSet(0, 1, 2)
1178161916 TreeSet(0, 1, 2)
1120196102 TreeSet(0, 1, 2)
1420615786 TreeSet(0, 1, 2)
4204895847 TreeSet(0, 1, 2)
3433351279 TreeSet(0, 1, 2)
2586074853 TreeSet(0, 1, 2)
1851914919 TreeSet(0, 1, 2)
1617124451 TreeSet(0, 1, 2)
874760336 TreeSet(0, 1, 2)
3961809142 TreeSet(0, 1, 2)
255056868 TreeSet(0, 1, 2)
111864446 TreeSet(0, 1, 2)
3137492942 TreeSet(0, 1, 2)
2769689037 TreeSet(0, 1, 2)
2544008185 TreeSet(0, 1, 2)
3330974313 TreeSet(0, 1, 2)
501823796 TreeSet(0, 1, 2)
3350936414 TreeSet(0, 1, 2)
2814616347 TreeSet(0, 1, 2)
2474143633 TreeSet(0, 1, 2)
266967822 TreeSet(0, 1, 2)
4010122229 TreeSet(0, 1, 2)
4055639378 TreeSet(0, 1, 2)
3332958809 TreeSet(0, 1, 2)
3274956758 TreeSet(0, 1, 2)
4078129122 TreeSet(0, 1, 2)
2803583940 TreeSet(0, 1, 2)
2358534248 TreeSet(0, 1, 2)
188930060 TreeSet(0, 1, 2)
393042761 TreeSet(0, 1, 2)
4208728031 TreeSet(0, 1, 2)
3744273321 TreeSet(0, 1, 2)
3692419311 TreeSet(0, 1, 2)
2276461244 TreeSet(0, 1, 2)
274752868 TreeSet(0, 1, 2)
452642807 TreeSet(0, 1, 2)
4195114753 TreeSet(0, 1, 2)
3046281347 TreeSet(0, 1, 2)
2802846209 TreeSet(0, 1, 2)
595048061 TreeSet(0, 1, 2)
2062444541 TreeSet(0, 1, 2)
130224852 TreeSet(0, 1, 2)
790321679 TreeSet(0, 1, 2)
1763273741 TreeSet(0, 1, 2)
1631314989 TreeSet(0, 1, 2)
3874890732 TreeSet(0, 1, 2)
1826460107 TreeSet(0, 1, 2)
2617452825 TreeSet(0, 1, 2)
1188305864 TreeSet(0, 1, 2)
915811068 TreeSet(0, 1, 2)
2449267974 TreeSet(0, 1, 2)
2700375509 TreeSet(0, 1, 2)
1301404079 TreeSet(0, 1, 2)
547868034 TreeSet(0, 1, 2)
1742865093 TreeSet(0, 1, 2)
787053512 TreeSet(0, 1, 2)
979214203 TreeSet(0, 1, 2)
2366048300 TreeSet(0, 1, 2)
1714932510 TreeSet(0, 1, 2)
1376982838 TreeSet(0, 1, 2)
3439110609 TreeSet(0, 1, 2)
1181948764 TreeSet(0, 1, 2)
1791219676 TreeSet(0, 1, 2)
1263951485 TreeSet(0, 1, 2)
393906767 TreeSet(0, 1, 2)
1474226921 TreeSet(0, 1, 2)
942601503 TreeSet(0, 1, 2)
2339575360 TreeSet(0, 1, 2)
3468032910 TreeSet(0, 1, 2)
597157547 TreeSet(0, 1, 2)
1903526990 TreeSet(0, 1, 2)
3534991242 TreeSet(0, 1, 2)
3501446543 TreeSet(0, 1, 2)
3459891975 TreeSet(0, 1, 2)
982536152 TreeSet(0, 1, 2)
3703224829 TreeSet(0, 1, 2)
2204804643 TreeSet(0, 1, 2)
1900387343 TreeSet(0, 1, 2)
3844966413 TreeSet(0, 1, 2)
1295431806 TreeSet(0, 1, 2)
3212718642 TreeSet(0, 1, 2)
429962483 TreeSet(0, 1, 2)
4226860711 TreeSet(0, 1, 2)
3837078014 TreeSet(0, 1, 2)
3480896034 TreeSet(0, 1, 2)
3120448681 TreeSet(0, 1, 2)
245955568 TreeSet(0, 1, 2)
2555940096 TreeSet(0, 1, 2)
3208749598 TreeSet(0, 1, 2)
291775494 TreeSet(0, 1, 2)
3467187148 TreeSet(0, 1, 2)
3099479522 TreeSet(0, 1, 2)
1883604262 TreeSet(0, 1, 2)
2138743312 TreeSet(0, 1, 2)
3776578629 TreeSet(0, 1, 2)
1973111024 TreeSet(0, 1, 2)
2477004488 TreeSet(0, 1, 2)
4121249993 TreeSet(0, 1, 2)
1348928786 TreeSet(0, 1, 2)
2076810936 TreeSet(0, 1, 2)
2920797030 TreeSet(0, 1, 2)
2111905941 TreeSet(0, 1, 2)
240642848 TreeSet(0, 1, 2)
1529714263 TreeSet(0, 1, 2)
113234747 TreeSet(0, 1, 2)
3367222734 TreeSet(0, 1, 2)
2460426203 TreeSet(0, 1, 2)
2922457934 TreeSet(0, 1, 2)
724926141 TreeSet(0, 1, 2)
4148980421 TreeSet(0, 1, 2)
142073201 TreeSet(0, 1, 2)
1876615761 TreeSet(0, 1, 2)
2439318772 TreeSet(0, 1, 2)
3442129063 TreeSet(0, 1, 2)
4112042121 TreeSet(0, 1, 2)
551740790 TreeSet(0, 1, 2)
3362293242 TreeSet(0, 1, 2)
2248046696 TreeSet(0, 1, 2)
1795739294 TreeSet(0, 1, 2)
2236442747 TreeSet(0, 1, 2)
2417923465 TreeSet(0, 1, 2)
3040565411 TreeSet(0, 1, 2)
281119776 TreeSet(0, 1, 2)
1352551680 TreeSet(0, 1, 2)
4063752108 TreeSet(0, 1, 2)
433558602 TreeSet(0, 1, 2)
2212339267 TreeSet(0, 1, 2)
858355253 TreeSet(0, 1, 2)
4060001375 TreeSet(0, 1, 2)
1217996082 TreeSet(0, 1, 2)
4081676005 TreeSet(0, 1, 2)
3840348482 TreeSet(0, 1, 2)
1296181336 TreeSet(0, 1, 2)
3339758245 TreeSet(0, 1, 2)
3481164492 TreeSet(0, 1, 2)
3802938913 TreeSet(0, 1, 2)
3846983929 TreeSet(0, 1, 2)
2551858604 TreeSet(0, 1, 2)
3730373604 TreeSet(0, 1, 2)
163857533 TreeSet(0, 1, 2)
3436472674 TreeSet(0, 1, 2)
158459086 TreeSet(0, 1, 2)
3582210105 TreeSet(0, 1, 2)
938656517 TreeSet(0, 1, 2)
2523288480 TreeSet(0, 1, 2)
3296170116 TreeSet(0, 1, 2)
3355331137 TreeSet(0, 1, 2)
1495252186 TreeSet(0, 1, 2)
3230336323 TreeSet(0, 1, 2)
596909662 TreeSet(0, 1, 2)
1933430523 TreeSet(0, 1, 2)
2610136671 TreeSet(0, 1, 2)
2521273216 TreeSet(0, 1, 2)
2258340692 TreeSet(0, 1, 2)
179652472 TreeSet(0, 1, 2)
949509415 TreeSet(0, 1, 2)
569285695 TreeSet(0, 1, 2)
161410131 TreeSet(0, 1, 2)
2191460179 TreeSet(0, 1, 2)
2376534133 TreeSet(0, 1, 2)
3112238165 TreeSet(0, 1, 2)
4141292292 TreeSet(0, 1, 2)
1922725708 TreeSet(0, 1, 2)
3723475000 TreeSet(0, 1, 2)
2212453896 TreeSet(0, 1, 2)
2256520105 TreeSet(0, 1, 2)
1352820094 TreeSet(0, 1, 2)
954111241 TreeSet(0, 1, 2)
716054387 TreeSet(0, 1, 2)
2634701011 TreeSet(0, 1, 2)
1240044596 TreeSet(0, 1, 2)
100536355 TreeSet(0, 1, 2)
4221963897 TreeSet(0, 1, 2)
3142622900 TreeSet(0, 1, 2)
538486266 TreeSet(0, 1, 2)
3005630144 TreeSet(0, 1, 2)
889162008 TreeSet(0, 1, 2)
2981366878 TreeSet(0, 1, 2)
421545166 TreeSet(0, 1, 2)
1766542501 TreeSet(0, 1, 2)
1786455952 TreeSet(0, 1, 2)
3718516820 TreeSet(0, 1, 2)
1250772860 TreeSet(0, 1, 2)
676165054 TreeSet(0, 1, 2)
497080403 TreeSet(0, 1, 2)
4165426610 TreeSet(0, 1, 2)
592772769 TreeSet(0, 1, 2)
3680358059 TreeSet(0, 1, 2)
4277025560 TreeSet(0, 1, 2)
3868617569 TreeSet(0, 1, 2)
2684783818 TreeSet(0, 1, 2)
2378300369 TreeSet(0, 1, 2)
1334133121 TreeSet(0, 1, 2)
537038343 TreeSet(0, 1, 2)
1828946705 TreeSet(0, 1, 2)
3386775500 TreeSet(0, 1, 2)
59252101 TreeSet(0, 1, 2)
1505937374 TreeSet(0, 1, 2)
1260322064 TreeSet(0, 1, 2)
2343251371 TreeSet(0, 1, 2)
202477693 TreeSet(0, 1, 2)
3533993095 TreeSet(0, 1, 2)
3071664395 TreeSet(0, 1, 2)
499407834 TreeSet(0, 1, 2)
712082518 TreeSet(0, 1, 2)
1580300305 TreeSet(0, 1, 2)
1733286251 TreeSet(0, 1, 2)
511561817 TreeSet(0, 1, 2)
2694164159 TreeSet(0, 1, 2)
1348773452 TreeSet(0, 1, 2)
208241218 TreeSet(0, 1, 2)
2307321768 TreeSet(0, 1, 2)
3430580698 TreeSet(0, 1, 2)
2721985549 TreeSet(0, 1, 2)
2993164282 TreeSet(0, 1, 2)
3788998629 TreeSet(0, 1, 2)
2672591224 TreeSet(0, 1, 2)
3787866099 TreeSet(0, 1, 2)
2425820433 TreeSet(0, 1, 2)
3733823669 TreeSet(0, 1, 2)
822912822 TreeSet(0, 1, 2)
2224835293 TreeSet(0, 1, 2)
3066032257 TreeSet(0, 1, 2)
3675516204 TreeSet(0, 1, 2)
53347691 TreeSet(0, 1, 2)
2525180096 TreeSet(0, 1, 2)
1790006515 TreeSet(0, 1, 2)
1303163879 TreeSet(0, 1, 2)
3091873254 TreeSet(0, 1, 2)
4040834330 TreeSet(0, 1, 2)
2034671379 TreeSet(0, 1, 2)
645460008 TreeSet(0, 1, 2)
825509728 TreeSet(0, 1, 2)
3903657720 TreeSet(0, 1, 2)
982502615 TreeSet(0, 1, 2)
1356607230 TreeSet(0, 1, 2)
4240798365 TreeSet(0, 1, 2)
266926517 TreeSet(0, 1, 2)
1907001332 TreeSet(0, 1, 2)
3581491985 TreeSet(0, 1, 2)
46621871 TreeSet(0, 1, 2)
236759157 TreeSet(0, 1, 2)
4047977972 TreeSet(0, 1, 2)
2021740275 TreeSet(0, 1, 2)
2680439213 TreeSet(0, 1, 2)
2493086445 TreeSet(0, 1, 2)
2883392946 TreeSet(0, 1, 2)
3218090493 TreeSet(0, 1, 2)
2489365015 TreeSet(0, 1, 2)
3305800575 TreeSet(0, 1, 2)
1910101922 TreeSet(0, 1, 2)
2713954228 TreeSet(0, 1, 2)
3937207504 TreeSet(0, 1, 2)
3300696771 TreeSet(0, 1, 2)
3928001703 TreeSet(0, 1, 2)
3263470597 TreeSet(0, 1, 2)
3256822940 TreeSet(0, 1, 2)
3750107572 TreeSet(0, 1, 2)
59938270 TreeSet(0, 1, 2)
3293182659 TreeSet(0, 1, 2)
3364486659 TreeSet(0, 1, 2)
1871489282 TreeSet(0, 1, 2)
1941007648 TreeSet(0, 1, 2)
2252153006 TreeSet(0, 1, 2)
1747111608 TreeSet(0, 1, 2)
2574286827 TreeSet(0, 1, 2)
2867455095 TreeSet(0, 1, 2)
2281376345 TreeSet(0, 1, 2)
3187340133 TreeSet(0, 1, 2)
2922203312 TreeSet(0, 1, 2)
3513833424 TreeSet(0, 1, 2)
569829205 TreeSet(0, 1, 2)
265208166 TreeSet(0, 1, 2)
3058948346 TreeSet(0, 1, 2)
3826365117 TreeSet(0, 1, 2)
2288127497 TreeSet(0, 1, 2)
3843654581 TreeSet(0, 1, 2)
578321616 TreeSet(0, 1, 2)
3544745446 TreeSet(0, 1, 2)
2226838038 TreeSet(0, 1, 2)
3810534804 TreeSet(0, 1, 2)
1421558283 TreeSet(0, 1, 2)
2547210597 TreeSet(0, 1, 2)
527100414 TreeSet(0, 1, 2)
4146196884 TreeSet(0, 1, 2)
2350154408 TreeSet(0, 1, 2)
1009558164 TreeSet(0, 1, 2)
4132925679 TreeSet(0, 1, 2)
2869024189 TreeSet(0, 1, 2)
744192670 TreeSet(0, 1, 2)
956223028 TreeSet(0, 1, 2)
579245285 TreeSet(0, 1, 2)
2382406446 TreeSet(0, 1, 2)
3471398947 TreeSet(0, 1, 2)
744325858 TreeSet(0, 1, 2)
1150311006 TreeSet(0, 1, 2)
4160680244 TreeSet(0, 1, 2)
527387111 TreeSet(0, 1, 2)
97356799 TreeSet(0, 1, 2)
1157981141 TreeSet(0, 1, 2)
162668387 TreeSet(0, 1, 2)
789946820 TreeSet(0, 1, 2)
3020337874 TreeSet(0, 1, 2)
2710703937 TreeSet(0, 1, 2)
1784767668 TreeSet(0, 1, 2)
2859699366 TreeSet(0, 1, 2)
1519402057 TreeSet(0, 1, 2)
4108968499 TreeSet(0, 1, 2)
3730284683 TreeSet(0, 1, 2)
1340612917 TreeSet(0, 1, 2)
3185545987 TreeSet(0, 1, 2)
2771897322 TreeSet(0, 1, 2)
1531641258 TreeSet(0, 1, 2)
1683694214 TreeSet(0, 1, 2)
1469073779 TreeSet(0, 1, 2)
24233879 TreeSet(0, 1, 2)
2181573857 TreeSet(0, 1, 2)
2527058043 TreeSet(0, 1, 2)
1895835618 TreeSet(0, 1, 2)
3333664860 TreeSet(0, 1, 2)
1892124192 TreeSet(0, 1, 2)
592602558 TreeSet(0, 1, 2)
1259101694 TreeSet(0, 1, 2)
1437850460 TreeSet(0, 1, 2)
2567944188 TreeSet(0, 1, 2)
2498961929 TreeSet(0, 1, 2)
2786832609 TreeSet(0, 1, 2)
2928814481 TreeSet(0, 1, 2)
1321482296 TreeSet(0, 1, 2)
1618179727 TreeSet(0, 1, 2)
461841877 TreeSet(0, 1, 2)
1088083935 TreeSet(0, 1, 2)
1659626991 TreeSet(0, 1, 2)
101740826 TreeSet(0, 1, 2)
3346524273 TreeSet(0, 1, 2)
873190156 TreeSet(0, 1, 2)
3741200887 TreeSet(0, 1, 2)
3740600824 TreeSet(0, 1, 2)
2572373592 TreeSet(0, 1, 2)
3481979035 TreeSet(0, 1, 2)
2371482196 TreeSet(0, 1, 2)
1414603587 TreeSet(0, 1, 2)
2324817310 TreeSet(0, 1, 2)
1102939820 TreeSet(0, 1, 2)
4160751379 TreeSet(0, 1, 2)
3739844695 TreeSet(0, 1, 2)
1731936290 TreeSet(0, 1, 2)
184890396 TreeSet(0, 1, 2)
604584711 TreeSet(0, 1, 2)
1704317750 TreeSet(0, 1, 2)
165164739 TreeSet(0, 1, 2)
965672593 TreeSet(0, 1, 2)
1922846080 TreeSet(0, 1, 2)
1705981525 TreeSet(0, 1, 2)
1986838860 TreeSet(0, 1, 2)
4234976070 TreeSet(0, 1, 2)
1237348065 TreeSet(0, 1, 2)
1825657425 TreeSet(0, 1, 2)
582725013 TreeSet(0, 1, 2)
312683920 TreeSet(0, 1, 2)
3549623481 TreeSet(0, 1, 2)
3477579883 TreeSet(0, 1, 2)
215813099 TreeSet(0, 1, 2)
2279069931 TreeSet(0, 1, 2)
1878452428 TreeSet(0, 1, 2)
517558685 TreeSet(0, 1, 2)
662081930 TreeSet(0, 1, 2)
1923200485 TreeSet(0, 1, 2)
1240762039 TreeSet(0, 1, 2)
709518623 TreeSet(0, 1, 2)
1695971930 TreeSet(0, 1, 2)
2531410353 TreeSet(0, 1, 2)
1032866522 TreeSet(0, 1, 2)
2147989329 TreeSet(0, 1, 2)
248545673 TreeSet(0, 1, 2)
167689892 TreeSet(0, 1, 2)
3649490652 TreeSet(0, 1, 2)
3605602738 TreeSet(0, 1, 2)
938375307 TreeSet(0, 1, 2)
1947767619 TreeSet(0, 1, 2)
637903048 TreeSet(0, 1, 2)
1338194188 TreeSet(0, 1, 2)
2726888929 TreeSet(0, 1, 2)
1585182984 TreeSet(0, 1, 2)
2237076003 TreeSet(0, 1, 2)
130490539 TreeSet(0, 1, 2)
974812506 TreeSet(0, 1, 2)
521328746 TreeSet(0, 1, 2)
1666565165 TreeSet(0, 1, 2)
1631532616 TreeSet(0, 1, 2)
1866117198 TreeSet(0, 1, 2)
2975798817 TreeSet(0, 1, 2)
3866128650 TreeSet(0, 1, 2)
3614793973 TreeSet(0, 1, 2)
716666166 TreeSet(0, 1, 2)
3518942913 TreeSet(0, 1, 2)
406880194 TreeSet(0, 1, 2)
1163336403 TreeSet(0, 1, 2)
4194403714 TreeSet(0, 1, 2)
3423146882 TreeSet(0, 1, 2)
3326245317 TreeSet(0, 1, 2)
2294316876 TreeSet(0, 1, 2)
2807017666 TreeSet(0, 1, 2)
1552081816 TreeSet(0, 1, 2)
379865397 TreeSet(0, 1, 2)
3845126844 TreeSet(0, 1, 2)
1120122203 TreeSet(0, 1, 2)
2931161382 TreeSet(0, 1, 2)
753118068 TreeSet(0, 1, 2)
1530733734 TreeSet(0, 1, 2)
1019583322 TreeSet(0, 1, 2)
2651793810 TreeSet(0, 1, 2)
3235577724 TreeSet(0, 1, 2)
2971662013 TreeSet(0, 1, 2)
878007281 TreeSet(0, 1, 2)
4282300569 TreeSet(0, 1, 2)
3037147821 TreeSet(0, 1, 2)
2889966568 TreeSet(0, 1, 2)
772094388 TreeSet(0, 1, 2)
4163047310 TreeSet(0, 1, 2)
3140340891 TreeSet(0, 1, 2)
686071770 TreeSet(0, 1, 2)
1627199301 TreeSet(0, 1, 2)
575018492 TreeSet(0, 1, 2)
3917930045 TreeSet(0, 1, 2)
560862933 TreeSet(0, 1, 2)
1495619224 TreeSet(0, 1, 2)
1482483680 TreeSet(0, 1, 2)
3590570442 TreeSet(0, 1, 2)
3862104569 TreeSet(0, 1, 2)
3170091832 TreeSet(0, 1, 2)
2698831466 TreeSet(0, 1, 2)
1505388148 TreeSet(0, 1, 2)
3186668065 TreeSet(0, 1, 2)
4276912418 TreeSet(0, 1, 2)
2443427445 TreeSet(0, 1, 2)
464929890 TreeSet(0, 1, 2)
3977419461 TreeSet(0, 1, 2)
3630315451 TreeSet(0, 1, 2)
2780220013 TreeSet(0, 1, 2)
1914815995 TreeSet(0, 1, 2)
3136439599 TreeSet(0, 1, 2)
3867273564 TreeSet(0, 1, 2)
2481409025 TreeSet(0, 1, 2)
2819221484 TreeSet(0, 1, 2)
3151922230 TreeSet(0, 1, 2)
2371916437 TreeSet(0, 1, 2)
4059682334 TreeSet(0, 1, 2)
2816469042 TreeSet(0, 1, 2)
232143460 TreeSet(0, 1, 2)
2419455786 TreeSet(0, 1, 2)
2958053182 TreeSet(0, 1, 2)
2376245851 TreeSet(0, 1, 2)
3583894116 TreeSet(0, 1, 2)
2307622518 TreeSet(0, 1, 2)
2067289125 TreeSet(0, 1, 2)
3920338635 TreeSet(0, 1, 2)
714036480 TreeSet(0, 1, 2)
1189533988 TreeSet(0, 1, 2)
2847089361 TreeSet(0, 1, 2)
1807689078 TreeSet(0, 1, 2)
3909506800 TreeSet(0, 1, 2)
750934743 TreeSet(0, 1, 2)
3421658233 TreeSet(0, 1, 2)
1738086640 TreeSet(0, 1, 2)
97411675 TreeSet(0, 1, 2)
2139385971 TreeSet(0, 1, 2)
